\contentsline {section}{Invited talks}{1}{section*.7}
\vspace {0.1in}
\contentsline {section}{Tutorials}{4}{section*.10}
\vspace {0.1in}
\contentsline {section}{Long papers}{6}{section*.12}
\vspace {0.1in}
\contentsline {section}{Short papers}{7}{section*.12}
\vspace {0.1in}
\contentsline {section}{ALTA Shared Task papers}{8}{section*.12}
